Data types
…
stringr provides a cohesive set of functions that make working with character data in R as easy as possible. *Most* any task you can think of that involves character data can be accomplished with stringr.

It's part of the core tidyverse, along with packages like dplyr and ggplot2, so stringr functions play really nicely with dplyr functions like `filter()` and `mutate()`.

Let's look at a concrete example.

---

class: middle

# `breed_traits` dataset

```
## # A tibble: 195 × 15
##    breed                affection shedding drooling openness playfulness protectiveness adaptability trainability energy barking
##    <chr>                    <dbl>    <dbl>    <dbl>    <dbl>       <dbl>          <dbl>        <dbl>        <dbl>  <dbl>   <dbl>
##  1 Retrievers (Labrado…         5        4        2        5           5              3            5            5      5       3
##  2 French Bulldogs              5        3        3        5           5              3            5            4      3       1
##  3 German Shepherd Dogs         5        4        2        3           4              5            5            5      5       3
##  4 Retrievers (Golden)          5        4        2        5           4              3            5            5      3       1
##  5 Bulldogs                     4        3        3        4           4              3            3            4      3       2
##  6 Poodles                      5        1        1        5           5              5            4            5      4       4
##  7 Beagles                      3        3        1        3           4              2            4            3      4       4
##  8 Rottweilers                  5        3        3        3           4              5            4            5      3       1
##  9 Pointers (German Sh…         5        3        2        4           4              4            4            5      5       3
## 10 Dachshunds                   5        2        2        4           4              4            4            4      3       5
## # ℹ 185 more rows
## # ℹ 4 more variables: stimulation_needs <dbl>, good_w_children <dbl>, good_w_other_dogs <dbl>, grooming_freq <dbl>
```
…
That's where stringr comes in.

---

class: middle

# Filtering with `str_detect()`

```r
breed_traits %>% 
  filter(str_detect(breed, "Terrier"))
```

```
## # A tibble: 36 × 15
##    breed                affection shedding drooling openness playfulness protectiveness adaptability trainability energy barking
##    <chr>                    <dbl>    <dbl>    <dbl>    <dbl>       <dbl>          <dbl>        <dbl>        <dbl>  <dbl>   <dbl>
##  1 Yorkshire Terriers           5        1        1        5           4              5            5            4      4       4
##  2 Boston Terriers              5        2        1        5           5              3            3            4      4       2
##  3 West Highland White…         5        3        1        4           5              5            4            3      4       5
##  4 Scottish Terriers            5        2        2        3           4              5            4            3      3       4
##  5 Soft Coated Wheaten…         5        1        2        3           3              3            3            3      4       3
##  6 Airedale Terriers            3        1        1        3           3              5            3            3      3       3
##  7 Bull Terriers                4        3        1        4           4              3            3            3      4       3
##  8 Russell Terriers             5        3        1        5           5              4            4            3      5       4
##  9 Cairn Terriers               4        2        1        3           4              4            3            3      3       4
## 10 Staffordshire Bull …         5        2        3        4           4              5            5            5      4       3
## # ℹ 26 more rows
## # ℹ 4 more variables: stimulation_needs <dbl>, good_w_children <dbl>, good_w_other_dogs <dbl>, grooming_freq <dbl>
```
…
