Data types
…
Let's look at a concrete example.

---

class: middle

# Breed Traits data set

```r
breed_traits
```

```
## # A tibble: 195 × 15
##   breed          affection shedding drooling openness playfulness protectiveness
##   <chr>              <dbl>    <dbl>    <dbl>    <dbl>       <dbl>          <dbl>
## 1 Retrievers (L…         5        4        2        5           5              3
## 2 French Bulldo…         5        3        3        5           5              3
## 3 German Shephe…         5        4        2        3           4              5
## 4 Retrievers (G…         5        4        2        5           4              3
## 5 Bulldogs               4        3        3        4           4              3
## 6 Poodles                5        1        1        5           5              5
## # ℹ 189 more rows
## # ℹ 8 more variables: adaptability <dbl>, trainability <dbl>, energy <dbl>,
## #   barking <dbl>, stimulation_needs <dbl>, good_w_children <dbl>,
## #   good_w_other_dogs <dbl>, grooming_freq <dbl>
```
…
That's where stringr comes in.

---

class: middle

# Filtering with `str_detect()`

```r
breed_traits %>% 
  filter(str_detect(breed, "Terrier"))
```

```
## # A tibble: 36 × 15
##    breed         affection shedding drooling openness playfulness protectiveness
##    <chr>             <dbl>    <dbl>    <dbl>    <dbl>       <dbl>          <dbl>
##  1 Yorkshire Te…         5        1        1        5           4              5
##  2 Boston Terri…         5        2        1        5           5              3
##  3 West Highlan…         5        3        1        4           5              5
##  4 Scottish Ter…         5        2        2        3           4              5
##  5 Soft Coated …         5        1        2        3           3              3
##  6 Airedale Ter…         3        1        1        3           3              5
##  7 Bull Terriers         4        3        1        4           4              3
##  8 Russell Terr…         5        3        1        5           5              4
##  9 Cairn Terrie…         4        2        1        3           4              4
## 10 Staffordshir…         5        2        3        4           4              5
## # ℹ 26 more rows
## # ℹ 8 more variables: adaptability <dbl>, trainability <dbl>, energy <dbl>,
## #   barking <dbl>, stimulation_needs <dbl>, good_w_children <dbl>,
## #   good_w_other_dogs <dbl>, grooming_freq <dbl>
```
…
account for leap time

round times, for example rounding dates to the nearest week or month

work with intervals of time

---
# Bike Traffic Dataset

```r
bike_traffic
```

```
## # A tibble: 85,810 × 5
##   date                   crossing           direction bike_count ped_count
##   <fct>                  <fct>              <fct>          <int>     <int>
## 1 02/28/2019 11:00:00 PM Burke Gilman Trail North              0         0
## 2 02/28/2019 10:00:00 PM Burke Gilman Trail North              0         0
## 3 02/28/2019 09:00:00 PM Burke Gilman Trail North              2         0
## 4 02/28/2019 08:00:00 PM Burke Gilman Trail North              2         1
## 5 02/28/2019 07:00:00 PM Burke Gilman Trail North              6         0
## 6 02/28/2019 06:00:00 PM Burke Gilman Trail North             13         5
## 7 02/28/2019 05:00:00 PM Burke Gilman Trail North             19        15
## 8 02/28/2019 04:00:00 PM Burke Gilman Trail North             26        23
## # ℹ 85,802 more rows
```
…
In the current form, we cannot take advantage of the many time-related tools that exist for dates and datetimes. 
---

# Get into a `datetime` format

```r
bike_traffic %>%
  mutate(
    timestamp = mdy_hms(date, tz = "US/Pacific"), 
    .before = date
  ) 
```

```
## # A tibble: 85,810 × 6
##   timestamp           date               crossing direction bike_count ped_count
##   <dttm>              <fct>              <fct>    <fct>          <int>     <int>
## 1 2019-02-28 23:00:00 02/28/2019 11:00:… Burke G… North              0         0
## 2 2019-02-28 22:00:00 02/28/2019 10:00:… Burke G… North              0         0
## 3 2019-02-28 21:00:00 02/28/2019 09:00:… Burke G… North              2         0
## 4 2019-02-28 20:00:00 02/28/2019 08:00:… Burke G… North              2         1
## 5 2019-02-28 19:00:00 02/28/2019 07:00:… Burke G… North              6         0
## # ℹ 85,805 more rows
```
…
???
And finally we can filter our dataset to that time interval using an operator called within. 
---
# Filtered Result

```r
bike_traffic %>%
  filter(timestamp %within% date_interval)
```

```
## # A tibble: 674 × 6
##   timestamp           date               crossing direction bike_count ped_count
##   <dttm>              <fct>              <fct>    <fct>          <int>     <int>
## 1 2015-09-13 17:00:00 09/13/2015 05:00:… Burke G… North             33        18
## 2 2015-09-13 16:00:00 09/13/2015 04:00:… Burke G… North             44        23
## 3 2015-09-13 15:00:00 09/13/2015 03:00:… Burke G… North             50        20
## 4 2015-09-13 14:00:00 09/13/2015 02:00:… Burke G… North             30        17
## 5 2015-09-13 13:00:00 09/13/2015 01:00:… Burke G… North             30        15
## 6 2015-09-13 12:00:00 09/13/2015 12:00:… Burke G… North             33        18
## 7 2015-09-13 11:00:00 09/13/2015 11:00:… Burke G… North             90        12
## 8 2015-09-13 10:00:00 09/13/2015 10:00:… Burke G… North            149        35
## # ℹ 666 more rows
```
…
